Lab 10
…
15.3 Key functions

15.3.1 Detect matches

str_detect(c("a", "b", "c"), "[aeiou]")

[1]  TRUE FALSE FALSE

#> [1]  TRUE FALSE FALSE

babynames |> 
  filter(str_detect(name, "x")) |> 
  count(name, wt = n, sort = TRUE)

# A tibble: 974 × 2
   name            n
   <chr>       <int>
 1 Alexander  665492
 2 Alexis     399551
 3 Alex       278705
 4 Alexandra  232223
 5 Max        148787
 6 Alexa      123032
 7 Maxine     112261
 8 Alexandria  97679
 9 Maxwell     90486
10 Jaxon       71234
# ℹ 964 more rows

#> # A tibble: 974 × 2
#>   name           n
#>   <chr>      <int>
#> 1 Alexander 665492
#> 2 Alexis    399551
#> 3 Alex      278705
#> 4 Alexandra 232223
#> 5 Max       148787
#> 6 Alexa     123032
#> # ℹ 968 more rows
…
#> [1] 2
str_view("abababa", "aba")

[1] │ <aba>b<aba>

#> [1] │ <aba>b<aba>

babynames |> 
  count(name) |> 
  mutate(
    vowels = str_count(name, "[aeiou]"),
    consonants = str_count(name, "[^aeiou]")
  )

# A tibble: 97,310 × 4
   name          n vowels consonants
   <chr>     <int>  <int>      <int>
 1 Aaban        10      2          3
 2 Aabha         5      2          3
 3 Aabid         2      2          3
 4 Aabir         1      2          3
 5 Aabriella     5      4          5
 6 Aada          1      2          2
 7 Aadam        26      2          3
 8 Aadan        11      2          3
 9 Aadarsh      17      2          5
10 Aaden        18      2          3
# ℹ 97,300 more rows

#> # A tibble: 97,310 × 4
#>   name          n vowels consonants
#>   <chr>     <int>  <int>      <int>
#> 1 Aaban        10      2          3
#> 2 Aabha         5      2          3
#> 3 Aabid         2      2          3
#> 4 Aabir         1      2          3
#> 5 Aabriella     5      4          5
#> 6 Aada          1      2          2
#> # ℹ 97,304 more rows

babynames |> 
  count(name) |> 
  mutate(
    name = str_to_lower(name),
    vowels = str_count(name, "[aeiou]"),
    consonants = str_count(name, "[^aeiou]")
  )

# A tibble: 97,310 × 4
   name          n vowels consonants
   <chr>     <int>  <int>      <int>
 1 aaban        10      3          2
 2 aabha         5      3          2
 3 aabid         2      3          2
 4 aabir         1      3          2
 5 aabriella     5      5          4
 6 aada          1      3          1
 7 aadam        26      3          2
 8 aadan        11      3          2
 9 aadarsh      17      3          4
10 aaden        18      3          2
# ℹ 97,300 more rows

#> # A tibble: 97,310 × 4
#>   name          n vowels consonants
#>   <chr>     <int>  <int>      <int>
#> 1 aaban        10      3          2
#> 2 aabha         5      3          2
#> 3 aabid         2      3          2
#> 4 aabir         1      3          2
#> 5 aabriella     5      5          4
#> 6 aada          1      3          1
#> # ℹ 97,304 more rows
…
# A tibble: 7 × 3
  name     gender age  
  <chr>    <chr>  <chr>
1 Sheryl   F      34   
2 Kisha    F      45   
3 Brandon  N      33   
4 Sharon   F      38   
5 Penny    F      58   
6 Justin   M      41   
7 Patricia F      84   

#> # A tibble: 7 × 3
#>   name    gender age  
#>   <chr>   <chr>  <chr>
#> 1 Sheryl  F      34   
#> 2 Kisha   F      45   
#> 3 Brandon N      33   
#> 4 Sharon  F      38   
#> 5 Penny   F      58   
#> 6 Justin  M      41   
#> # ℹ 1 more row

15.3.5 Exercises

15.3.5.1 Exercise

#What baby name has the most vowels? What name has the highest proportion of vowels? (Hint: what is the denominator?)
babynames |>
  distinct(name) |>
  mutate(
    vowel_count = str_count(name, regex("[aeiou]", ignore_case = TRUE))) |>
  arrange(desc(vowel_count)
          )

# A tibble: 97,310 × 2
   name            vowel_count
   <chr>                 <int>
 1 Mariaguadalupe            8
 2 Mariadelrosario           8
 3 Marielouise               7
 4 Mariadelourdes            7
 5 Annielaurie               7
 6 Mariadelosangel           7
 7 Angelicamaria             7
 8 Stephaniemarie            7
 9 Mariavictoria             7
10 Aliciamarie               7
# ℹ 97,300 more rows

babynames |>
  distinct(name) |>
  mutate(
    vowel_count = str_count(name, regex("[aeiou]", ignore_case = TRUE)),
    total_count = str_count(name, regex("[a-z]", ignore_case = TRUE)),
    highest_proportion_vowels = total_count / vowel_count
  ) %>% 
    arrange((highest_proportion_vowels), desc(vowel_count), name)

# A tibble: 97,310 × 4
   name   vowel_count total_count highest_proportion_vowels
   <chr>        <int>       <int>                     <dbl>
 1 Aia              3           3                       1  
 2 Aoi              3           3                       1  
 3 Eua              3           3                       1  
 4 Ai               2           2                       1  
 5 Ea               2           2                       1  
 6 Ia               2           2                       1  
 7 Ii               2           2                       1  
 8 Io               2           2                       1  
 9 Alaiia           5           6                       1.2
10 Amaiia           5           6                       1.2
# ℹ 97,300 more rows
…
#>      [,1]                [,2]     [,3]    
#> [1,] "the smooth planks" "smooth" "planks"
#> [2,] "the sheet to"      "sheet"  "to"    
#> [3,] "the depth of"      "depth"  "of"    
#> [4,] NA                  NA       NA      
#> [5,] NA                  NA       NA      
#> [6,] NA                  NA       NA

sentences |> 
  str_match("the (\\w+) (\\w+)") |> 
  as_tibble(.name_repair = "minimal") |> 
  set_names("match", "word1", "word2")

# A tibble: 720 × 3
   match             word1  word2 
   <chr>             <chr>  <chr> 
 1 the smooth planks smooth planks
 2 the sheet to      sheet  to    
 3 the depth of      depth  of    
 4 <NA>              <NA>   <NA>  
 5 <NA>              <NA>   <NA>  
 6 <NA>              <NA>   <NA>  
 7 the parked truck  parked truck 
 8 <NA>              <NA>   <NA>  
 9 <NA>              <NA>   <NA>  
10 <NA>              <NA>   <NA>  
# ℹ 710 more rows

#> # A tibble: 720 × 3
#>   match             word1  word2 
#>   <chr>             <chr>  <chr> 
#> 1 the smooth planks smooth planks
#> 2 the sheet to      sheet  to    
#> 3 the depth of      depth  of    
#> 4 <NA>              <NA>   <NA>  
#> 5 <NA>              <NA>   <NA>  
#> 6 <NA>              <NA>   <NA>  
#> # ℹ 714 more rows
…
# A tibble: 8 × 3
  original swapped still_word
  <chr>    <chr>   <lgl>     
1 deal     lead    TRUE      
2 dear     read    TRUE      
3 dog      god     TRUE      
4 god      dog     TRUE      
5 lead     deal    TRUE      
6 no       on      TRUE      
7 on       no      TRUE      
8 read     dear    TRUE      

unchanged_but_valid

# A tibble: 37 × 3
   original  swapped   still_word
   <chr>     <chr>     <lgl>     
 1 a         a         TRUE      
 2 america   america   TRUE      
 3 area      area      TRUE      
 4 dad       dad       TRUE      
 5 dead      dead      TRUE      
 6 depend    depend    TRUE      
 7 educate   educate   TRUE      
 8 else      else      TRUE      
 9 encourage encourage TRUE      
10 engine    engine    TRUE      
# ℹ 27 more rows
…
