Lab 11
…
airports

# A tibble: 1,458 × 8
   faa   name                             lat    lon   alt    tz dst   tzone    
   <chr> <chr>                          <dbl>  <dbl> <dbl> <dbl> <chr> <chr>    
 1 04G   Lansdowne Airport               41.1  -80.6  1044    -5 A     America/…
 2 06A   Moton Field Municipal Airport   32.5  -85.7   264    -6 A     America/…
 3 06C   Schaumburg Regional             42.0  -88.1   801    -6 A     America/…
 4 06N   Randall Airport                 41.4  -74.4   523    -5 A     America/…
 5 09J   Jekyll Island Airport           31.1  -81.4    11    -5 A     America/…
 6 0A9   Elizabethton Municipal Airport  36.4  -82.2  1593    -5 A     America/…
 7 0G6   Williams County Airport         41.5  -84.5   730    -5 A     America/…
 8 0G7   Finger Lakes Regional Airport   42.9  -76.8   492    -5 A     America/…
 9 0P2   Shoestring Aviation Airfield    39.8  -76.6  1000    -5 U     America/…
10 0S9   Jefferson County Intl           48.1 -123.    108    -8 A     America/…
# ℹ 1,448 more rows

planes

# A tibble: 3,322 × 9
   tailnum  year type              manufacturer model engines seats speed engine
   <chr>   <int> <chr>             <chr>        <chr>   <int> <int> <int> <chr> 
 1 N10156   2004 Fixed wing multi… EMBRAER      EMB-…       2    55    NA Turbo…
 2 N102UW   1998 Fixed wing multi… AIRBUS INDU… A320…       2   182    NA Turbo…
 3 N103US   1999 Fixed wing multi… AIRBUS INDU… A320…       2   182    NA Turbo…
 4 N104UW   1999 Fixed wing multi… AIRBUS INDU… A320…       2   182    NA Turbo…
 5 N10575   2002 Fixed wing multi… EMBRAER      EMB-…       2    55    NA Turbo…
 6 N105UW   1999 Fixed wing multi… AIRBUS INDU… A320…       2   182    NA Turbo…
 7 N107US   1999 Fixed wing multi… AIRBUS INDU… A320…       2   182    NA Turbo…
 8 N108UW   1999 Fixed wing multi… AIRBUS INDU… A320…       2   182    NA Turbo…
 9 N109UW   1999 Fixed wing multi… AIRBUS INDU… A320…       2   182    NA Turbo…
10 N110UW   1999 Fixed wing multi… AIRBUS INDU… A320…       2   182    NA Turbo…
# ℹ 3,312 more rows

weather

# A tibble: 26,115 × 15
   origin  year month   day  hour  temp  dewp humid wind_dir wind_speed
   <chr>  <int> <int> <int> <int> <dbl> <dbl> <dbl>    <dbl>      <dbl>
 1 EWR     2013     1     1     1  39.0  26.1  59.4      270      10.4 
 2 EWR     2013     1     1     2  39.0  27.0  61.6      250       8.06
 3 EWR     2013     1     1     3  39.0  28.0  64.4      240      11.5 
 4 EWR     2013     1     1     4  39.9  28.0  62.2      250      12.7 
 5 EWR     2013     1     1     5  39.0  28.0  64.4      260      12.7 
 6 EWR     2013     1     1     6  37.9  28.0  67.2      240      11.5 
 7 EWR     2013     1     1     7  39.0  28.0  64.4      240      15.0 
 8 EWR     2013     1     1     8  39.9  28.0  62.2      250      10.4 
 9 EWR     2013     1     1     9  39.9  28.0  62.2      260      15.0 
10 EWR     2013     1     1    10  41    28.0  59.6      260      13.8 
# ℹ 26,105 more rows
# ℹ 5 more variables: wind_gust <dbl>, precip <dbl>, pressure <dbl>,
#   visib <dbl>, time_hour <dttm>
…
airports |>
  count(alt, lat) |> 
  filter(n > 1)

# A tibble: 1 × 3
    alt   lat     n
  <dbl> <dbl> <int>
1    13  40.6     2

flights2 <- flights |> 
  mutate(id = row_number(), .before = 1)
flights2

# A tibble: 336,776 × 20
      id  year month   day dep_time sched_dep_time dep_delay arr_time
   <int> <int> <int> <int>    <int>          <int>     <dbl>    <int>
 1     1  2013     1     1      517            515         2      830
 2     2  2013     1     1      533            529         4      850
 3     3  2013     1     1      542            540         2      923
 4     4  2013     1     1      544            545        -1     1004
 5     5  2013     1     1      554            600        -6      812
 6     6  2013     1     1      554            558        -4      740
 7     7  2013     1     1      555            600        -5      913
 8     8  2013     1     1      557            600        -3      709
 9     9  2013     1     1      557            600        -3      838
10    10  2013     1     1      558            600        -2      753
# ℹ 336,766 more rows
# ℹ 12 more variables: sched_arr_time <int>, arr_delay <dbl>, carrier <chr>,
#   flight <int>, tailnum <chr>, origin <chr>, dest <chr>, air_time <dbl>,
#   distance <dbl>, hour <dbl>, minute <dbl>, time_hour <dttm>
…
#We know that some days of the year are special and fewer people than usual fly on them (e.g., Christmas eve and Christmas day). How might you represent that data as a data frame? What would be the primary key? How would it connect to the existing data frames?

19.2.4.5 Exercises

#Draw a diagram illustrating the connections between the Batting, People, and Salaries data frames in the Lahman package. Draw another diagram that shows the relationship between People, Managers, AwardsManagers. How would you characterize the relationship between the Batting, Pitching, and Fielding data frames?

19.3 Basic joins

19.3.1 Mutating joins

flights2 <- flights |> 
  select(year, time_hour, origin, dest, tailnum, carrier)
flights2

# A tibble: 336,776 × 6
    year time_hour           origin dest  tailnum carrier
   <int> <dttm>              <chr>  <chr> <chr>   <chr>  
 1  2013 2013-01-01 05:00:00 EWR    IAH   N14228  UA     
 2  2013 2013-01-01 05:00:00 LGA    IAH   N24211  UA     
 3  2013 2013-01-01 05:00:00 JFK    MIA   N619AA  AA     
 4  2013 2013-01-01 05:00:00 JFK    BQN   N804JB  B6     
 5  2013 2013-01-01 06:00:00 LGA    ATL   N668DN  DL     
 6  2013 2013-01-01 05:00:00 EWR    ORD   N39463  UA     
 7  2013 2013-01-01 06:00:00 EWR    FLL   N516JB  B6     
 8  2013 2013-01-01 06:00:00 LGA    IAD   N829AS  EV     
 9  2013 2013-01-01 06:00:00 JFK    MCO   N593JB  B6     
10  2013 2013-01-01 06:00:00 LGA    ORD   N3ALAA  AA     
# ℹ 336,766 more rows

flights2 |>
  left_join(airlines)

# A tibble: 336,776 × 7
    year time_hour           origin dest  tailnum carrier name                  
   <int> <dttm>              <chr>  <chr> <chr>   <chr>   <chr>                 
 1  2013 2013-01-01 05:00:00 EWR    IAH   N14228  UA      United Air Lines Inc. 
 2  2013 2013-01-01 05:00:00 LGA    IAH   N24211  UA      United Air Lines Inc. 
 3  2013 2013-01-01 05:00:00 JFK    MIA   N619AA  AA      American Airlines Inc.
 4  2013 2013-01-01 05:00:00 JFK    BQN   N804JB  B6      JetBlue Airways       
 5  2013 2013-01-01 06:00:00 LGA    ATL   N668DN  DL      Delta Air Lines Inc.  
 6  2013 2013-01-01 05:00:00 EWR    ORD   N39463  UA      United Air Lines Inc. 
 7  2013 2013-01-01 06:00:00 EWR    FLL   N516JB  B6      JetBlue Airways       
 8  2013 2013-01-01 06:00:00 LGA    IAD   N829AS  EV      ExpressJet Airlines I…
 9  2013 2013-01-01 06:00:00 JFK    MCO   N593JB  B6      JetBlue Airways       
10  2013 2013-01-01 06:00:00 LGA    ORD   N3ALAA  AA      American Airlines Inc.
# ℹ 336,766 more rows

flights2 |> 
  left_join(weather |> select(origin, time_hour, temp, wind_speed))

# A tibble: 336,776 × 8
    year time_hour           origin dest  tailnum carrier  temp wind_speed
   <int> <dttm>              <chr>  <chr> <chr>   <chr>   <dbl>      <dbl>
 1  2013 2013-01-01 05:00:00 EWR    IAH   N14228  UA       39.0       12.7
 2  2013 2013-01-01 05:00:00 LGA    IAH   N24211  UA       39.9       15.0
 3  2013 2013-01-01 05:00:00 JFK    MIA   N619AA  AA       39.0       15.0
 4  2013 2013-01-01 05:00:00 JFK    BQN   N804JB  B6       39.0       15.0
 5  2013 2013-01-01 06:00:00 LGA    ATL   N668DN  DL       39.9       16.1
 6  2013 2013-01-01 05:00:00 EWR    ORD   N39463  UA       39.0       12.7
 7  2013 2013-01-01 06:00:00 EWR    FLL   N516JB  B6       37.9       11.5
 8  2013 2013-01-01 06:00:00 LGA    IAD   N829AS  EV       39.9       16.1
 9  2013 2013-01-01 06:00:00 JFK    MCO   N593JB  B6       37.9       13.8
10  2013 2013-01-01 06:00:00 LGA    ORD   N3ALAA  AA       39.9       16.1
# ℹ 336,766 more rows

flights2 |> 
  left_join(planes |> select(tailnum, type, engines, seats))

# A tibble: 336,776 × 9
    year time_hour           origin dest  tailnum carrier type     engines seats
   <int> <dttm>              <chr>  <chr> <chr>   <chr>   <chr>      <int> <int>
 1  2013 2013-01-01 05:00:00 EWR    IAH   N14228  UA      Fixed w…       2   149
 2  2013 2013-01-01 05:00:00 LGA    IAH   N24211  UA      Fixed w…       2   149
 3  2013 2013-01-01 05:00:00 JFK    MIA   N619AA  AA      Fixed w…       2   178
 4  2013 2013-01-01 05:00:00 JFK    BQN   N804JB  B6      Fixed w…       2   200
 5  2013 2013-01-01 06:00:00 LGA    ATL   N668DN  DL      Fixed w…       2   178
 6  2013 2013-01-01 05:00:00 EWR    ORD   N39463  UA      Fixed w…       2   191
 7  2013 2013-01-01 06:00:00 EWR    FLL   N516JB  B6      Fixed w…       2   200
 8  2013 2013-01-01 06:00:00 LGA    IAD   N829AS  EV      Fixed w…       2    55
 9  2013 2013-01-01 06:00:00 JFK    MCO   N593JB  B6      Fixed w…       2   200
10  2013 2013-01-01 06:00:00 LGA    ORD   N3ALAA  AA      <NA>          NA    NA
# ℹ 336,766 more rows

flights2 |> 
  filter(tailnum == "N3ALAA") |> 
  left_join(planes |> select(tailnum, type, engines, seats))

# A tibble: 63 × 9
    year time_hour           origin dest  tailnum carrier type  engines seats
   <int> <dttm>              <chr>  <chr> <chr>   <chr>   <chr>   <int> <int>
 1  2013 2013-01-01 06:00:00 LGA    ORD   N3ALAA  AA      <NA>       NA    NA
 2  2013 2013-01-02 18:00:00 LGA    ORD   N3ALAA  AA      <NA>       NA    NA
 3  2013 2013-01-03 06:00:00 LGA    ORD   N3ALAA  AA      <NA>       NA    NA
 4  2013 2013-01-07 19:00:00 LGA    ORD   N3ALAA  AA      <NA>       NA    NA
 5  2013 2013-01-08 17:00:00 JFK    ORD   N3ALAA  AA      <NA>       NA    NA
 6  2013 2013-01-16 06:00:00 LGA    ORD   N3ALAA  AA      <NA>       NA    NA
 7  2013 2013-01-20 18:00:00 LGA    ORD   N3ALAA  AA      <NA>       NA    NA
 8  2013 2013-01-22 17:00:00 JFK    ORD   N3ALAA  AA      <NA>       NA    NA
 9  2013 2013-10-11 06:00:00 EWR    MIA   N3ALAA  AA      <NA>       NA    NA
10  2013 2013-10-14 08:00:00 JFK    BOS   N3ALAA  AA      <NA>       NA    NA
# ℹ 53 more rows

19.3.2 Specifying join keys

flights2 |> 
  left_join(planes)

# A tibble: 336,776 × 13
    year time_hour           origin dest  tailnum carrier type  manufacturer
   <int> <dttm>              <chr>  <chr> <chr>   <chr>   <chr> <chr>       
 1  2013 2013-01-01 05:00:00 EWR    IAH   N14228  UA      <NA>  <NA>        
 2  2013 2013-01-01 05:00:00 LGA    IAH   N24211  UA      <NA>  <NA>        
 3  2013 2013-01-01 05:00:00 JFK    MIA   N619AA  AA      <NA>  <NA>        
 4  2013 2013-01-01 05:00:00 JFK    BQN   N804JB  B6      <NA>  <NA>        
 5  2013 2013-01-01 06:00:00 LGA    ATL   N668DN  DL      <NA>  <NA>        
 6  2013 2013-01-01 05:00:00 EWR    ORD   N39463  UA      <NA>  <NA>        
 7  2013 2013-01-01 06:00:00 EWR    FLL   N516JB  B6      <NA>  <NA>        
 8  2013 2013-01-01 06:00:00 LGA    IAD   N829AS  EV      <NA>  <NA>        
 9  2013 2013-01-01 06:00:00 JFK    MCO   N593JB  B6      <NA>  <NA>        
10  2013 2013-01-01 06:00:00 LGA    ORD   N3ALAA  AA      <NA>  <NA>        
# ℹ 336,766 more rows
# ℹ 5 more variables: model <chr>, engines <int>, seats <int>, speed <int>,
#   engine <chr>

flights2 |> 
  left_join(planes, join_by(tailnum))

# A tibble: 336,776 × 14
   year.x time_hour           origin dest  tailnum carrier year.y type          
    <int> <dttm>              <chr>  <chr> <chr>   <chr>    <int> <chr>         
 1   2013 2013-01-01 05:00:00 EWR    IAH   N14228  UA        1999 Fixed wing mu…
 2   2013 2013-01-01 05:00:00 LGA    IAH   N24211  UA        1998 Fixed wing mu…
 3   2013 2013-01-01 05:00:00 JFK    MIA   N619AA  AA        1990 Fixed wing mu…
 4   2013 2013-01-01 05:00:00 JFK    BQN   N804JB  B6        2012 Fixed wing mu…
 5   2013 2013-01-01 06:00:00 LGA    ATL   N668DN  DL        1991 Fixed wing mu…
 6   2013 2013-01-01 05:00:00 EWR    ORD   N39463  UA        2012 Fixed wing mu…
 7   2013 2013-01-01 06:00:00 EWR    FLL   N516JB  B6        2000 Fixed wing mu…
 8   2013 2013-01-01 06:00:00 LGA    IAD   N829AS  EV        1998 Fixed wing mu…
 9   2013 2013-01-01 06:00:00 JFK    MCO   N593JB  B6        2004 Fixed wing mu…
10   2013 2013-01-01 06:00:00 LGA    ORD   N3ALAA  AA          NA <NA>          
# ℹ 336,766 more rows
# ℹ 6 more variables: manufacturer <chr>, model <chr>, engines <int>,
#   seats <int>, speed <int>, engine <chr>

flights2 |> 
  left_join(airports, join_by(dest == faa))

# A tibble: 336,776 × 13
    year time_hour           origin dest  tailnum carrier name         lat   lon
   <int> <dttm>              <chr>  <chr> <chr>   <chr>   <chr>      <dbl> <dbl>
 1  2013 2013-01-01 05:00:00 EWR    IAH   N14228  UA      George Bu…  30.0 -95.3
 2  2013 2013-01-01 05:00:00 LGA    IAH   N24211  UA      George Bu…  30.0 -95.3
 3  2013 2013-01-01 05:00:00 JFK    MIA   N619AA  AA      Miami Intl  25.8 -80.3
 4  2013 2013-01-01 05:00:00 JFK    BQN   N804JB  B6      <NA>        NA    NA  
 5  2013 2013-01-01 06:00:00 LGA    ATL   N668DN  DL      Hartsfiel…  33.6 -84.4
 6  2013 2013-01-01 05:00:00 EWR    ORD   N39463  UA      Chicago O…  42.0 -87.9
 7  2013 2013-01-01 06:00:00 EWR    FLL   N516JB  B6      Fort Laud…  26.1 -80.2
 8  2013 2013-01-01 06:00:00 LGA    IAD   N829AS  EV      Washingto…  38.9 -77.5
 9  2013 2013-01-01 06:00:00 JFK    MCO   N593JB  B6      Orlando I…  28.4 -81.3
10  2013 2013-01-01 06:00:00 LGA    ORD   N3ALAA  AA      Chicago O…  42.0 -87.9
# ℹ 336,766 more rows
# ℹ 4 more variables: alt <dbl>, tz <dbl>, dst <chr>, tzone <chr>

flights2 |> 
  left_join(airports, join_by(origin == faa))

# A tibble: 336,776 × 13
    year time_hour           origin dest  tailnum carrier name         lat   lon
   <int> <dttm>              <chr>  <chr> <chr>   <chr>   <chr>      <dbl> <dbl>
 1  2013 2013-01-01 05:00:00 EWR    IAH   N14228  UA      Newark Li…  40.7 -74.2
 2  2013 2013-01-01 05:00:00 LGA    IAH   N24211  UA      La Guardia  40.8 -73.9
 3  2013 2013-01-01 05:00:00 JFK    MIA   N619AA  AA      John F Ke…  40.6 -73.8
 4  2013 2013-01-01 05:00:00 JFK    BQN   N804JB  B6      John F Ke…  40.6 -73.8
 5  2013 2013-01-01 06:00:00 LGA    ATL   N668DN  DL      La Guardia  40.8 -73.9
 6  2013 2013-01-01 05:00:00 EWR    ORD   N39463  UA      Newark Li…  40.7 -74.2
 7  2013 2013-01-01 06:00:00 EWR    FLL   N516JB  B6      Newark Li…  40.7 -74.2
 8  2013 2013-01-01 06:00:00 LGA    IAD   N829AS  EV      La Guardia  40.8 -73.9
 9  2013 2013-01-01 06:00:00 JFK    MCO   N593JB  B6      John F Ke…  40.6 -73.8
10  2013 2013-01-01 06:00:00 LGA    ORD   N3ALAA  AA      La Guardia  40.8 -73.9
# ℹ 336,766 more rows
# ℹ 4 more variables: alt <dbl>, tz <dbl>, dst <chr>, tzone <chr>
…
airports |> 
  semi_join(flights2, join_by(faa == origin))

# A tibble: 3 × 8
  faa   name                  lat   lon   alt    tz dst   tzone           
  <chr> <chr>               <dbl> <dbl> <dbl> <dbl> <chr> <chr>           
1 EWR   Newark Liberty Intl  40.7 -74.2    18    -5 A     America/New_York
2 JFK   John F Kennedy Intl  40.6 -73.8    13    -5 A     America/New_York
3 LGA   La Guardia           40.8 -73.9    22    -5 A     America/New_York

airports |> 
  semi_join(flights2, join_by(faa == dest))

# A tibble: 101 × 8
   faa   name                                lat    lon   alt    tz dst   tzone 
   <chr> <chr>                             <dbl>  <dbl> <dbl> <dbl> <chr> <chr> 
 1 ABQ   Albuquerque International Sunport  35.0 -107.   5355    -7 A     Ameri…
 2 ACK   Nantucket Mem                      41.3  -70.1    48    -5 A     Ameri…
 3 ALB   Albany Intl                        42.7  -73.8   285    -5 A     Ameri…
 4 ANC   Ted Stevens Anchorage Intl         61.2 -150.    152    -9 A     Ameri…
 5 ATL   Hartsfield Jackson Atlanta Intl    33.6  -84.4  1026    -5 A     Ameri…
 6 AUS   Austin Bergstrom Intl              30.2  -97.7   542    -6 A     Ameri…
 7 AVL   Asheville Regional Airport         35.4  -82.5  2165    -5 A     Ameri…
 8 BDL   Bradley Intl                       41.9  -72.7   173    -5 A     Ameri…
 9 BGR   Bangor Intl                        44.8  -68.8   192    -5 A     Ameri…
10 BHM   Birmingham Intl                    33.6  -86.8   644    -6 A     Ameri…
# ℹ 91 more rows
…
# A tibble: 4 × 1
  dest 
  <chr>
1 BQN  
2 SJU  
3 STT  
4 PSE  

flights2 |>
  anti_join(planes, join_by(tailnum)) |> 
  distinct(tailnum)

# A tibble: 722 × 1
   tailnum
   <chr>  
 1 N3ALAA 
 2 N3DUAA 
 3 N542MQ 
 4 N730MQ 
 5 N9EAMQ 
 6 N532UA 
 7 N3EMAA 
 8 N518MQ 
 9 N3BAAA 
10 N3CYAA 
# ℹ 712 more rows
…
worst48_weather <- worst48 %>%
  left_join(
    weather %>%
      select(origin, time_hour, temp, dewp, humid, wind_dir, wind_speed,
             wind_gust, precip, pressure, visib),
    by = c("origin", "time_hour")
  )

worst48_weather

# A tibble: 48 × 14
   origin time_hour           mean_dep_delay p95_dep_delay n_flights  temp  dewp
   <chr>  <dttm>                       <dbl>         <dbl>     <int> <dbl> <dbl>
 1 LGA    2013-07-28 21:00:00           280.          314.         3  73.9  69.1
 2 EWR    2013-02-09 10:00:00           269           269          1  28.0  16.0
 3 EWR    2013-02-09 09:00:00           266           266          1  27.0  17.1
 4 LGA    2013-09-02 16:00:00           250.          364.        13  80.1  72.0
 5 LGA    2013-07-22 18:00:00           246.          377          5  80.1  73.0
 6 LGA    2013-07-28 19:00:00           240.          356.        14  75.2  69.8
 7 JFK    2013-04-10 21:00:00           237           318.         7  53.1  50  
 8 LGA    2013-09-12 20:00:00           226.          271.         4  72.0  68  
 9 EWR    2013-03-08 12:00:00           225.          364.        10  33.8  32  
10 LGA    2013-12-05 11:00:00           221.          292          7  51.1  48.9
# ℹ 38 more rows
# ℹ 7 more variables: humid <dbl>, wind_dir <dbl>, wind_speed <dbl>,
#   wind_gust <dbl>, precip <dbl>, pressure <dbl>, visib <dbl>

19.3.4.2 Exercises

#Imagine you’ve found the top 10 most popular destinations using this code:
top_dest <- flights2 |>
  count(dest, sort = TRUE) |>
  head(10)

#How can you find all flights to those destinations?
top_dest_flights <- flights2 %>% 
  semi_join(top_dest, "dest")
  
top_dest_flights

# A tibble: 141,145 × 6
    year time_hour           origin dest  tailnum carrier
   <int> <dttm>              <chr>  <chr> <chr>   <chr>  
 1  2013 2013-01-01 05:00:00 JFK    MIA   N619AA  AA     
 2  2013 2013-01-01 06:00:00 LGA    ATL   N668DN  DL     
 3  2013 2013-01-01 05:00:00 EWR    ORD   N39463  UA     
 4  2013 2013-01-01 06:00:00 EWR    FLL   N516JB  B6     
 5  2013 2013-01-01 06:00:00 JFK    MCO   N593JB  B6     
 6  2013 2013-01-01 06:00:00 LGA    ORD   N3ALAA  AA     
 7  2013 2013-01-01 06:00:00 JFK    LAX   N29129  UA     
 8  2013 2013-01-01 06:00:00 EWR    SFO   N53441  UA     
 9  2013 2013-01-01 05:00:00 JFK    BOS   N708JB  B6     
10  2013 2013-01-01 06:00:00 LGA    FLL   N595JB  B6     
# ℹ 141,135 more rows
…
