Lab 13 - Creating a detailed report with explanations from the NEON MAG data Overview
…
# ---- outputs ----
print(alpha |> arrange(desc(shannon)))

# A tibble: 27 × 4
   site_id richness shannon simpson
   <chr>      <int>   <dbl>   <dbl>
 1 UNDE         154    4.42   0.968
 2 DEJU         165    4.41   0.975
 3 PUUM         144    4.35   0.974
 4 NIWO         125    4.25   0.971
 5 BONA          92    4.12   0.976
 6 DCFS         106    4.02   0.954
 7 UKFS         108    4.00   0.947
 8 HARV          78    3.92   0.969
 9 CLBJ         103    3.87   0.931
10 WREF          74    3.87   0.967
# ℹ 17 more rows
